#SM HH
/eos/user/m/mswiatlo/bbbb/NNT_AUG19_topo/450000_mc16a/
/eos/user/m/mswiatlo/bbbb/NNT_AUG19_topo/450000_mc16d/
/eos/user/m/mswiatlo/bbbb/NNT_AUG19_topo/450000_mc16e/

#Scalar
/eos/user/m/mswiatlo/bbbb/NNT_AUG19_topo/450248_mc16a/
/eos/user/m/mswiatlo/bbbb/NNT_AUG19_topo/450249_mc16a/
/eos/user/m/mswiatlo/bbbb/NNT_AUG19_topo/450250_mc16a/
/eos/user/m/mswiatlo/bbbb/NNT_AUG19_topo/450251_mc16a/
/eos/user/m/mswiatlo/bbbb/NNT_AUG19_topo/450252_mc16a/
/eos/user/m/mswiatlo/bbbb/NNT_AUG19_topo/450253_mc16a/
/eos/user/m/mswiatlo/bbbb/NNT_AUG19_topo/450254_mc16a/
/eos/user/m/mswiatlo/bbbb/NNT_AUG19_topo/450255_mc16a/
/eos/user/m/mswiatlo/bbbb/NNT_AUG19_topo/450256_mc16a/
/eos/user/m/mswiatlo/bbbb/NNT_AUG19_topo/450257_mc16a/
/eos/user/m/mswiatlo/bbbb/NNT_AUG19_topo/450258_mc16a/

/eos/user/m/mswiatlo/bbbb/NNT_AUG19_topo/450248_mc16d/
/eos/user/m/mswiatlo/bbbb/NNT_AUG19_topo/450249_mc16d/
/eos/user/m/mswiatlo/bbbb/NNT_AUG19_topo/450250_mc16d/
/eos/user/m/mswiatlo/bbbb/NNT_AUG19_topo/450251_mc16d/
/eos/user/m/mswiatlo/bbbb/NNT_AUG19_topo/450252_mc16d/
/eos/user/m/mswiatlo/bbbb/NNT_AUG19_topo/450253_mc16d/
/eos/user/m/mswiatlo/bbbb/NNT_AUG19_topo/450254_mc16d/
/eos/user/m/mswiatlo/bbbb/NNT_AUG19_topo/450255_mc16d/
/eos/user/m/mswiatlo/bbbb/NNT_AUG19_topo/450256_mc16d/
/eos/user/m/mswiatlo/bbbb/NNT_AUG19_topo/450257_mc16d/
/eos/user/m/mswiatlo/bbbb/NNT_AUG19_topo/450258_mc16d/

/eos/user/m/mswiatlo/bbbb/NNT_AUG19_topo/450248_mc16e/
/eos/user/m/mswiatlo/bbbb/NNT_AUG19_topo/450249_mc16e/
/eos/user/m/mswiatlo/bbbb/NNT_AUG19_topo/450250_mc16e/
/eos/user/m/mswiatlo/bbbb/NNT_AUG19_topo/450251_mc16e/
/eos/user/m/mswiatlo/bbbb/NNT_AUG19_topo/450252_mc16e/
/eos/user/m/mswiatlo/bbbb/NNT_AUG19_topo/450253_mc16e/
/eos/user/m/mswiatlo/bbbb/NNT_AUG19_topo/450254_mc16e/
/eos/user/m/mswiatlo/bbbb/NNT_AUG19_topo/450255_mc16e/
/eos/user/m/mswiatlo/bbbb/NNT_AUG19_topo/450256_mc16e/
/eos/user/m/mswiatlo/bbbb/NNT_AUG19_topo/450257_mc16e/
